"code_version"	"hw_platform"	"Program Build"	"Kernel1"	"Kernel2"	"Kernels"	"Data Copy Total"	"Total Time"	"Bandwidth"	"GFLOPS"
"1"	"cuda_advanced"	"NVIDIA GTX780"	0	16.1073462963104	0.042466163635255	16.1507724523544	0.025526762008665	16.175911	57.991705	47.1182605
"2"	"cuda_advanced"	"NVIDIA K20"	0	22.8433592319489	0.15465438365936	23.0091708898544	0.0435037612915	23.0529935	40.8912045	33.224104
"3"	"cuda"	"NVIDIA GTX780"	0	9.2249972820282	0.042038798332215	9.26837658882141	0.02535831928253	9.2935755	101.2566665	82.2710415
"4"	"cuda_leggyadv"	"NVIDIA GTX780"	0	31.1281179189682	0.0465030670166	31.1749435663223	0.001632571220395	31.6651535	30.007997	24.3814975
"5"	"cuda_leggyadv"	"NVIDIA K20"	0	35.0043108463287	0.174814105033875	35.1810699701309	0.002787232398985	35.413669	26.6850695	21.681619
"6"	"cuda_leggy"	"NVIDIA GTX780"	0	14.1643221378326	0.04271066188812	14.2081985473633	0.02550780773163	14.2336255	65.946853	53.5818185
"7"	"cuda_leggy"	"NVIDIA K20"	0	20.7375272512436	0.153233170509335	20.9012490510941	0.04656195640564	20.94685	45.0435805	36.597909
"8"	"cuda"	"NVIDIA K20"	0	13.0793209075928	0.11574614048004	13.2021944522858	0.046483516693115	13.2468325	71.4175085	58.0267255
"9"	"openclcpp_advanced"	"AMD R9 259X2"	0.2430145740509	10.1057237355	0.014862379	10.1746045351028	0	10.5553015	92.4320215	75.1010175
"10"	"openclcpp_advanced"	"AMD R280"	0.78792703151703	12.1804703725	0.0126485045	12.21140396595	0	13.146927	76.6877175	62.3087705
"11"	"openclcpp_advanced"	"NVIDIA GTX780"	0.801366448402405	15.479562064	0.02019912	15.5096405744553	0	16.4399255	60.343598	49.0291735
"12"	"openclcpp_advanced"	"NVIDIA K20"	1.01192104816437	22.730520816	0.027372256	22.7736929655075	0	24.070767	41.0941955	33.389034
"13"	"openclcpp_advanced"	"Xeon Phi"	1.84543299674987	81.0486897409998	1.848759117	84.2258440256119	0	86.6680375	11.525078	9.364126
"14"	"openclcpp"	"AMD R9 259X2"	0.24121391773224	7.53767896750001	0.013297901	7.73642992973328	0	8.077475	123.9230905	100.687511
"15"	"openclcpp"	"AMD R280"	0.786349892616275	9.0500928845	0.0125561505	9.07998406887054	0	9.9803365	103.2135785	83.8610325
"16"	"openclcpp"	"NVIDIA GTX780"	0.79954838752747	10.062425104	0.019522992	10.0916335582733	0	10.989188	92.8297565	75.424177
"17"	"openclcpp_leggyadv"	"AMD R9 259X2"	0.25358414649963	16.463695537	0.012559745	16.5051779747009	0	16.892892	56.736501	46.098407
"18"	"openclcpp_leggyadv"	"AMD R280"	0.800639033317565	23.001863925	0.0127497025	23.0302494764328	0	23.9776	40.609425	32.995158
"19"	"openclcpp_leggyadv"	"NVIDIA GTX780"	0.79430413246155	40.7510984000001	0.020260768	40.7814025878906	0	41.704929	22.921897	18.624041
"20"	"openclcpp_leggyadv"	"NVIDIA K20"	1.04700553417206	59.2877650880003	0.027366528	59.3313535451889	0	60.629884	15.755232	12.8011255
"21"	"openclcpp_leggyadv"	"Xeon Phi"	2.01650750637055	244.8201397155	1.7558410995	247.735248446465	0	250.471468	3.8154235	3.1000315
"22"	"openclcpp_leggy"	"AMD R9 259X2"	0.24217295646667	10.323605245	0.014316877	10.3558740615845	0	10.695637	90.481227	73.515997
"23"	"openclcpp_leggy"	"AMD R280"	0.78783643245697	13.691464065	0.0126510295	13.7214870452881	0	14.6221905	68.2244405	55.4323575
"24"	"openclcpp_leggy"	"NVIDIA GTX780"	0.79964554309845	21.342719152	0.019442288	21.3719950914383	0	22.2682925	43.7663295	35.5601425
"25"	"openclcpp_leggy"	"NVIDIA K20"	1.05218946933746	20.621671824	0.02752232	20.6649295091629	0	21.901137	45.2966415	36.803521
"26"	"openclcpp_leggy"	"Xeon Phi"	1.90715599060059	90.010849928	1.497330964	92.7183389663696	0	95.13234	10.377554	8.431763
"27"	"openclcpp"	"NVIDIA K20"	1.03623497486115	13.097388928	0.02734288	13.1406923532486	0	14.3854165	71.318984	57.9466745
"28"	"openclcpp"	"Xeon Phi"	1.71828198432922	35.468506311	2.040572393	38.711935043335	0	40.899539	26.335828	21.39786
