"code_version"	"hw_platform"	"Program Build"	"Kernel1"	"Kernel2"	"Kernels"	"Data Copy Total"	"Total Time"	"Bandwidth"	"GFLOPS"
"1"	"abstractCL"	"AMD R9 295X2"	0.31824588775635	63.839439719	0.014049272	63.9914000034332	0.61012290303206	66.192068	117.055222	95.107368
"2"	"abstractCL"	"AMD R280"	0.886916518211365	73.1207919000001	0.013028582	73.1616109609604	0.579234486014615	75.940591	102.1971945	83.03522
"3"	"abstractCL"	"NVIDIA GTX780"	0.88041090965271	81.5737183360003	0.019913664	81.6045229434967	0.57785974830554	84.350846	91.607198	74.430848
"4"	"abstractCL"	"NVIDIA K20"	0.993106484413145	111.867016752	0.03469712	111.922099590302	1.74455806893145	116.868126	66.800206	54.2751675
"5"	"abstractCL"	"Xeon Phi"	31.5998628139496	216.120282352	3.09539776299999	220.463257074356	2.17195430331363	259.682605	34.576763	28.09362
"6"	"CUDA"	"NVIDIA GTX780"	0	78.5125912427902	0.046574354171755	78.5622758865356	0.19547998905182	78.757703	95.180154	77.3338745
"7"	"CUDA"	"NVIDIA K20"	0	110.762454986572	0.093616724014285	110.860412955284	0.33422875404358	111.1938735	67.466361	54.816418
"8"	"OpenCL"	"AMD R9 295X2"	0.23840498924255	63.842127429	0.014107181	63.9776709079742	0	64.952182	117.050294	95.103364
"9"	"OpenCL"	"AMD R280"	0.79167854785919	73.138236882	0.013027601	73.1686815023422	0.22737658023834	74.7403925	102.1728185	83.0154145
"10"	"OpenCL"	"NVIDIA GTX780"	0.80393195152283	82.2675392959998	0.020114048	82.2980630397797	0.42967391014099	83.857698	90.834609	73.80312
"11"	"OpenCL"	"NVIDIA K20"	0.96823501586914	111.480759312	0.03440512	111.534486055374	0.476808428764345	114.1971685	67.031655	54.4632195
"12"	"OpenCL"	"Xeon Phi"	31.5433530807495	274.703525278	3.005221588	279.000454902649	1.37372851371765	314.0907375	27.2029265	22.102378
"13"	"targetDP"	"Xeon Phi"	0	274.636347174644	0.014092683792115	274.674329519272	0.950172781944275	275.6288875	27.2095855	22.1077885
"14"	"targetDP"	"Intel Xeon E5"	0	414.25465285778	0.001585602760315	414.258282423019	0.3470059633255	414.605417	18.0390185	14.656702
"15"	"targetDP"	"NVIDIA GTX780"	0	87.0546494722366	0.047916054725645	87.1025729179382	0.198829174041745	87.2974445	85.83964	69.7447075
"16"	"targetDP"	"NVIDIA K20"	0	134.34217774868	0.10260534286499	134.446016430855	0.334178566932675	134.779873	55.6246735	45.195047
